{
    "key": "group_5a39233eec592",
    "title": "Sidebar Widgets",
    "fields": [
        {
            "key": "field_5a39233f00eee",
            "label": "Widgets",
            "name": "sidebar_widgets",
            "type": "repeater",
            "instructions": "Add up to three widget boxes to display in the sidebar of this page.",
            "required": 0,
            "conditional_logic": 0,
            "wrapper": {
                "width": "",
                "class": "",
                "id": ""
            },
            "collapsed": "",
            "min": 0,
            "max": 3,
            "layout": "table",
            "button_label": "Add Widget",
            "sub_fields": [
                {
                    "key": "field_5a39233f05281",
                    "label": "Widget",
                    "name": "widget",
                    "type": "wysiwyg",
                    "instructions": "",
                    "required": 0,
                    "conditional_logic": 0,
                    "wrapper": {
                        "width": "",
                        "class": "",
                        "id": ""
                    },
                    "default_value": "",
                    "tabs": "all",
                    "toolbar": "full",
                    "media_upload": 1,
                    "delay": 0
                }
            ]
        }
    ],
    "location": [
        [
            {
                "param": "page_template",
                "operator": "==",
                "value": "page-templates\/page_with_sidebar.php"
            }
        ]
    ],
    "menu_order": 2,
    "position": "normal",
    "style": "default",
    "label_placement": "top",
    "instruction_placement": "label",
    "hide_on_screen": "",
    "active": 1,
    "description": "",
    "modified": 1513694706
}